[
  {
    "id": 6,
    "createdAt": "2022-03-20T14:08:06.156Z",
    "userId": "cl0tbdr260000msv46gdwurew",
    "postId": 519
  },
  {
    "id": 10,
    "createdAt": "2022-03-20T14:45:38.704Z",
    "userId": "cl0wlk9nu0004w0v4y8t7mzrg",
    "postId": 518
  },
  {
    "id": 11,
    "createdAt": "2022-03-20T14:46:17.081Z",
    "userId": "cl0wlk9nu0004w0v4y8t7mzrg",
    "postId": 514
  },
  {
    "id": 12,
    "createdAt": "2022-03-20T14:47:15.881Z",
    "userId": "cl0wlk9nu0004w0v4y8t7mzrg",
    "postId": 515
  },
  {
    "id": 14,
    "createdAt": "2022-03-20T14:50:25.064Z",
    "userId": "cl0wlk9nu0004w0v4y8t7mzrg",
    "postId": 502
  },
  {
    "id": 15,
    "createdAt": "2022-03-20T14:50:27.354Z",
    "userId": "cl0wlk9nu0004w0v4y8t7mzrg",
    "postId": 495
  },
  {
    "id": 22,
    "createdAt": "2022-03-21T02:54:39.880Z",
    "userId": "cl0wlk9nu0004w0v4y8t7mzrg",
    "postId": 520
  },
  {
    "id": 1,
    "createdAt": "2022-03-20T11:39:50.813Z",
    "userId": "cl0wlk9nu0004w0v4y8t7mzrg",
    "postId": null
  },
  {
    "id": 4,
    "createdAt": "2022-03-20T12:02:36.290Z",
    "userId": "cl0tbdr260000msv46gdwurew",
    "postId": null
  },
  {
    "id": 2,
    "createdAt": "2022-03-20T11:41:14.968Z",
    "userId": "cl0wlk9nu0004w0v4y8t7mzrg",
    "postId": null
  },
  {
    "id": 3,
    "createdAt": "2022-03-20T11:54:35.468Z",
    "userId": "cl0wlk9nu0004w0v4y8t7mzrg",
    "postId": null
  },
  {
    "id": 13,
    "createdAt": "2022-03-20T14:49:49.351Z",
    "userId": "cl0tbdr260000msv46gdwurew",
    "postId": null
  },
  {
    "id": 35,
    "createdAt": "2022-03-28T04:35:42.255Z",
    "userId": "cl0wlk9nu0004w0v4y8t7mzrg",
    "postId": 979
  },
  {
    "id": 36,
    "createdAt": "2022-03-28T04:35:49.775Z",
    "userId": "cl0wlk9nu0004w0v4y8t7mzrg",
    "postId": 979
  },
  {
    "id": 37,
    "createdAt": "2022-03-28T04:35:50.854Z",
    "userId": "cl0wlk9nu0004w0v4y8t7mzrg",
    "postId": 979
  },
  {
    "id": 46,
    "createdAt": "2022-04-07T03:30:20.937Z",
    "userId": "cl0wlk9nu0004w0v4y8t7mzrg",
    "postId": 2099
  },
  {
    "id": 47,
    "createdAt": "2022-04-07T03:30:41.061Z",
    "userId": "cl0wlk9nu0004w0v4y8t7mzrg",
    "postId": 2097
  },
  {
    "id": 48,
    "createdAt": "2022-04-07T03:30:48.525Z",
    "userId": "cl0wlk9nu0004w0v4y8t7mzrg",
    "postId": 2093
  },
  {
    "id": 50,
    "createdAt": "2022-04-07T03:41:51.392Z",
    "userId": "cl0wlk9nu0004w0v4y8t7mzrg",
    "postId": 2078
  },
  {
    "id": 51,
    "createdAt": "2022-04-07T03:41:56.205Z",
    "userId": "cl0wlk9nu0004w0v4y8t7mzrg",
    "postId": 2078
  },
  {
    "id": 52,
    "createdAt": "2022-04-07T03:42:15.058Z",
    "userId": "cl0wlk9nu0004w0v4y8t7mzrg",
    "postId": 2078
  },
  {
    "id": 55,
    "createdAt": "2022-04-07T03:42:33.429Z",
    "userId": "cl0wlk9nu0004w0v4y8t7mzrg",
    "postId": 2098
  },
  {
    "id": 58,
    "createdAt": "2022-04-07T03:46:45.426Z",
    "userId": "cl0wlk9nu0004w0v4y8t7mzrg",
    "postId": 2096
  },
  {
    "id": 60,
    "createdAt": "2022-04-07T04:01:37.003Z",
    "userId": "cl0wlk9nu0004w0v4y8t7mzrg",
    "postId": 2050
  },
  {
    "id": 61,
    "createdAt": "2022-04-07T04:01:58.847Z",
    "userId": "cl0wlk9nu0004w0v4y8t7mzrg",
    "postId": 1892
  }
]